Model Tuning
…
grid
```

This is a type of _space-filling design_. 

It tends to do much better than random grids and is (usually) more efficient than regular grids. 

]
.pull-right[

```
## # A tibble: 25 × 3
##          penalty mixture deg_free
##            <dbl>   <dbl>    <int>
##  1 0.124           0.309        2
##  2 0.0000000474    0.269        5
##  3 0.0000000101    0.810        4
##  4 0.0000140       0.527       11
##  5 0.172           0.897        3
##  6 0.0000329       0.701        3
##  7 0.00000000610   0.590       13
##  8 0.0141          0.102        6
##  9 0.00513         0.405       13
## 10 0.000667        0.145        1
## # … with 15 more rows
```
…
<img src="5-tuning_files/figure-html/enhacned-1.svg" width="80%" style="display: block; margin: auto;" />

---

# Returning results

```r
collect_metrics(chi_res)
```

```
## # A tibble: 50 × 9
##      penalty mixture deg_free .metric .estimator  mean     n std_err .config  
##        <dbl>   <dbl>    <int> <chr>   <chr>      <dbl> <int>   <dbl> <chr>    
##  1   1.24e-1   0.309        2 rmse    standard   2.11     16  0.266  Preproce…
##  2   1.24e-1   0.309        2 rsq     standard   0.924    16  0.0249 Preproce…
##  3   4.91e-1   0.817        2 rmse    standard   2.95     16  0.402  Preproce…
##  4   4.91e-1   0.817        2 rsq     standard   0.848    16  0.0502 Preproce…
##  5   4.74e-8   0.269        5 rmse    standard   1.74     16  0.241  Preproce…
##  6   4.74e-8   0.269        5 rsq     standard   0.947    16  0.0213 Preproce…
##  7   3.28e-9   0.483        5 rmse    standard   1.74     16  0.241  Preproce…
##  8   3.28e-9   0.483        5 rsq     standard   0.947    16  0.0212 Preproce…
##  9   1.01e-8   0.810        4 rmse    standard   1.72     16  0.241  Preproce…
## 10   1.01e-8   0.810        4 rsq     standard   0.947    16  0.0210 Preproce…
## # … with 40 more rows
```

---

# Returning results

```r
collect_metrics(chi_res, summarize = FALSE)
```

```
## # A tibble: 800 × 8
##    id      penalty mixture deg_free .metric .estimator .estimate .config      
##    <chr>     <dbl>   <dbl>    <int> <chr>   <chr>          <dbl> <chr>        
##  1 Slice01   0.124   0.309        2 rmse    standard       4.20  Preprocessor…
##  2 Slice01   0.124   0.309        2 rsq     standard       0.722 Preprocessor…
##  3 Slice02   0.124   0.309        2 rmse    standard       1.96  Preprocessor…
##  4 Slice02   0.124   0.309        2 rsq     standard       0.961 Preprocessor…
##  5 Slice03   0.124   0.309        2 rmse    standard       2.30  Preprocessor…
##  6 Slice03   0.124   0.309        2 rsq     standard       0.915 Preprocessor…
##  7 Slice04   0.124   0.309        2 rmse    standard       1.78  Preprocessor…
##  8 Slice04   0.124   0.309        2 rsq     standard       0.965 Preprocessor…
##  9 Slice05   0.124   0.309        2 rmse    standard       2.00  Preprocessor…
## 10 Slice05   0.124   0.309        2 rsq     standard       0.938 Preprocessor…
## # … with 790 more rows
```
…
